identifier	time_total_s	time_perevent_s
Reader:CsvSimHitReader	5.063	0.5063
Reader:CsvParticleReader	0.9041	0.09041
Algorithm:DigitizationAlgorithm	0.2373	0.02373
Writer:CsvMeasurementWriter	2.189	0.2189
Writer:CsvMeasurementWriter:endRun	1.29e-07	1.29e-08
