identifier	time_total_s	time_perevent_s
Reader:CsvSimHitReader	14.84	1.484
Reader:CsvParticleReader	3.08	0.308
Algorithm:DigitizationAlgorithm	0.6196	0.06196
Writer:CsvMeasurementWriter	6.616	0.6616
Writer:CsvMeasurementWriter:endRun	1.39e-07	1.39e-08
