identifier	time_total_s	time_perevent_s
Reader:CsvSimHitReader	61.81	6.181
Reader:CsvParticleReader	12.99	1.299
Algorithm:DigitizationAlgorithm	3.033	0.3033
Writer:CsvMeasurementWriter	30.96	3.096
Writer:CsvMeasurementWriter:endRun	1.81e-07	1.81e-08
